antanym • antanym
…
A few additional (but probably less useful) columns can be included by calling an_read(..., simplified = FALSE). Consult the an_read documentation for more information.

Finding names

The an_filter function provides a range of options to find the names you are interested in.

Basic searching

A simple search for any place name containing the word ‘William’:

an_filter(g, query = "William")

## # A tibble: 75 x 14
##    gaz_id scar_common_id place_name place_name_tran… longitude latitude altitude
##     <dbl>          <dbl> <chr>      <chr>                <dbl>    <dbl>    <dbl>
##  1      8          16073 William S… William Scoresb…      59.8    -67.3       NA
##  2     75          16074 William S… William Scoresb…      59.6    -67.4       NA
##  3    559          16090 Williamso… Williamson Glac…     114.     -66.6       NA
##  4    643          16092 Williamso… Williamson Head      158.     -69.2       NA
##  5   1240          16083 Williams … Williams Lake         78.2    -68.5        3
##  6   1428          16096 Mount Wil… Mount Williams        50.8    -66.8       NA
##  7   1825          16084 Williams … Williams Nunatak     111.     -66.4       50
##  8   2189          16097 Point Wil… Point Williams        67.6    -67.8       NA
##  9   2430          16088 Williams … Williams Rocks        62.8    -67.4        5
## 10 100917           2288 Fort Will… Fort William, p…     -59.6    -62.4       NA
## # … with 65 more rows, and 7 more variables: feature_type_name <chr>,
## #   date_named <dttm>, narrative <chr>, named_for <chr>, origin <chr>,
## #   relic <lgl>, gazetteer <chr>
…
Find names containing “William” and originating from Australia or the USA:

an_filter(g, query = "William", origin = "Australia|United States of America")

## # A tibble: 39 x 14
##    gaz_id scar_common_id place_name place_name_tran… longitude latitude altitude
##     <dbl>          <dbl> <chr>      <chr>                <dbl>    <dbl>    <dbl>
##  1      8          16073 William S… William Scoresb…      59.8    -67.3       NA
##  2     75          16074 William S… William Scoresb…      59.6    -67.4       NA
##  3    559          16090 Williamso… Williamson Glac…     114.     -66.6       NA
##  4    643          16092 Williamso… Williamson Head      158.     -69.2       NA
##  5   1240          16083 Williams … Williams Lake         78.2    -68.5        3
##  6   1428          16096 Mount Wil… Mount Williams        50.8    -66.8       NA
##  7   1825          16084 Williams … Williams Nunatak     111.     -66.4       50
##  8   2189          16097 Point Wil… Point Williams        67.6    -67.8       NA
##  9   2430          16088 Williams … Williams Rocks        62.8    -67.4        5
## 10 125297           4839 Fort Will… Fort William         -59.7    -62.4      100
## # … with 29 more rows, and 7 more variables: feature_type_name <chr>,
## #   date_named <dttm>, narrative <chr>, named_for <chr>, origin <chr>,
## #   relic <lgl>, gazetteer <chr>
…
Regular expressions

Regular expressions also allow more complex searches. For example, names matching “West” or “East”:

an_filter(g, query = "West|East")

## # A tibble: 138 x 14
##    gaz_id scar_common_id place_name place_name_tran… longitude latitude altitude
##     <dbl>          <dbl> <chr>      <chr>                <dbl>    <dbl>    <dbl>
##  1     12          15899 West Arm   West Arm              62.9    -67.6       18
##  2     13           4025 East Arm   East Arm              62.9    -67.6        8
##  3    556          14345 Sylwester… Sylwester Glaci…     160.     -84.2       NA
##  4    738          15908 West Ice … West Ice Shelf        85      -67         NA
##  5    870           4028 East Budd… East Budd Island      62.8    -67.6       12
##  6    895          15904 West Budd… West Budd Island      62.8    -67.6       13
##  7    976           4041 Easther I… Easther Island        76.2    -69.4       65
##  8   1169           4032 East Lake  East Lake            143.     -67.0       27
##  9   1337           4030 East Eger… East Egerton         158.     -80.8       NA
## 10   1848          15923 Westhaven… Westhaven Nunat…     154.     -79.8       NA
## # … with 128 more rows, and 7 more variables: feature_type_name <chr>,
## #   date_named <dttm>, narrative <chr>, named_for <chr>, origin <chr>,
## #   relic <lgl>, gazetteer <chr>

Names starting with “West” or “East”:

an_filter(g, query = "^(West|East)")

## # A tibble: 92 x 14
##    gaz_id scar_common_id place_name place_name_tran… longitude latitude altitude
##     <dbl>          <dbl> <chr>      <chr>                <dbl>    <dbl>    <dbl>
##  1     12          15899 West Arm   West Arm              62.9    -67.6     18  
##  2     13           4025 East Arm   East Arm              62.9    -67.6      8  
##  3    738          15908 West Ice … West Ice Shelf        85      -67       NA  
##  4    870           4028 East Budd… East Budd Island      62.8    -67.6     12  
##  5    895          15904 West Budd… West Budd Island      62.8    -67.6     13  
##  6    976           4041 Easther I… Easther Island        76.2    -69.4     65  
##  7   1169           4032 East Lake  East Lake            143.     -67.0     27  
##  8   1337           4030 East Eger… East Egerton         158.     -80.8     NA  
##  9   1848          15923 Westhaven… Westhaven Nunat…     154.     -79.8     NA  
## 10   2195          15927 Westwood … Westwood Point        77.9    -68.6      8.5
## # … with 82 more rows, and 7 more variables: feature_type_name <chr>,
## #   date_named <dttm>, narrative <chr>, named_for <chr>, origin <chr>,
## #   relic <lgl>, gazetteer <chr>

Names with “West” or “East” appearing as complete words in the name (“\b” matches a word boundary; see help("regex")):

an_filter(g, query = "\\b(West|East)\\b")

## # A tibble: 93 x 14
##    gaz_id scar_common_id place_name place_name_tran… longitude latitude altitude
##     <dbl>          <dbl> <chr>      <chr>                <dbl>    <dbl>    <dbl>
##  1     12          15899 West Arm   West Arm              62.9    -67.6       18
##  2     13           4025 East Arm   East Arm              62.9    -67.6        8
##  3    738          15908 West Ice … West Ice Shelf        85      -67         NA
##  4    870           4028 East Budd… East Budd Island      62.8    -67.6       12
##  5    895          15904 West Budd… West Budd Island      62.8    -67.6       13
##  6   1169           4032 East Lake  East Lake            143.     -67.0       27
##  7   1337           4030 East Eger… East Egerton         158.     -80.8       NA
##  8   2489          15915 West Stack West Stack            58.1    -67.0       NA
##  9   2490           4038 East Stack East Stack            58.3    -67.1       NA
## 10 105006           1690 Bowles We… Bowles West Peak     -60.2    -62.6       NA
## # … with 83 more rows, and 7 more variables: feature_type_name <chr>,
## #   date_named <dttm>, narrative <chr>, named_for <chr>, origin <chr>,
## #   relic <lgl>, gazetteer <chr>

Spatial searching

We can filter by spatial extent:

an_filter(g, extent = c(100, 120, -70, -65))

## # A tibble: 751 x 14
##    gaz_id scar_common_id place_name place_name_tran… longitude latitude altitude
##     <dbl>          <dbl> <chr>      <chr>                <dbl>    <dbl>    <dbl>
##  1      7           6373 Highjump … Highjump Archip…      101.    -66.0       NA
##  2     15           8581 Loewe Mas… Loewe Massif Au…      112.    -68.4       NA
##  3     17           8210 Law Dome … Law Dome Summit       113.    -66.7     1395
##  4     28          11156 Petersen … Petersen Bank         111.    -65.8       NA
##  5     31           8143 Larsen Ba… Larsen Bank           111.    -66.3        0
##  6     41           8700 Luchistaj… Luchistaja Bay        101.    -66.1       NA
##  7     42           8881 Majachnaj… Majachnaja Bay        101.    -66.2       NA
##  8     44           8339 Leonova B… Leonova Bay           101.    -66.2       NA
##  9     45          15468 Vetvistaj… Vetvistaja Bay        101.    -66.1       NA
## 10     46          10722 Ostrovnaj… Ostrovnaja Bay        101.    -66.2       NA
## # … with 741 more rows, and 7 more variables: feature_type_name <chr>,
## #   date_named <dttm>, narrative <chr>, named_for <chr>, origin <chr>,
## #   relic <lgl>, gazetteer <chr>

The extent can also be passed as Spatial or Raster object, in which case its extent will be used:

my_sp <- sp::SpatialPoints(cbind(c(100, 120), c(-70, -65)))
an_filter(g, extent = my_sp)

## # A tibble: 751 x 14
##    gaz_id scar_common_id place_name place_name_tran… longitude latitude altitude
##     <dbl>          <dbl> <chr>      <chr>                <dbl>    <dbl>    <dbl>
##  1      7           6373 Highjump … Highjump Archip…      101.    -66.0       NA
##  2     15           8581 Loewe Mas… Loewe Massif Au…      112.    -68.4       NA
##  3     17           8210 Law Dome … Law Dome Summit       113.    -66.7     1395
##  4     28          11156 Petersen … Petersen Bank         111.    -65.8       NA
##  5     31           8143 Larsen Ba… Larsen Bank           111.    -66.3        0
##  6     41           8700 Luchistaj… Luchistaja Bay        101.    -66.1       NA
##  7     42           8881 Majachnaj… Majachnaja Bay        101.    -66.2       NA
##  8     44           8339 Leonova B… Leonova Bay           101.    -66.2       NA
##  9     45          15468 Vetvistaj… Vetvistaja Bay        101.    -66.1       NA
## 10     46          10722 Ostrovnaj… Ostrovnaja Bay        101.    -66.2       NA
## # … with 741 more rows, and 7 more variables: feature_type_name <chr>,
## #   date_named <dttm>, narrative <chr>, named_for <chr>, origin <chr>,
## #   relic <lgl>, gazetteer <chr>
…
